{
 "db_name": "_a2d808e83e8b7bbc",
 "db_password": "X7lFp6ubzyGnYRzS",
 "db_type": "mariadb",
 "developer_mode": 1,
 "encryption_key": "7ArmxLQeUOQjn2k98pY9vxOfnRxLxI6cBYJ9xNv4ydU=",
 "server_script_enabled": true,
 "user_type_doctype_limit": {
  "employee_self_service": 10
 }
}